Media Service Starting...
===============================================================================================================================
     _    ____   ____ _______  __             _    ____ ___   __  __    _    _   _    _    ____ _____ __  __ _____ _   _ _____
    / \  |  _ \ / ___|_   _\ \/ /            / \  |  _ \_ _| |  \/  |  / \  | \ | |  / \  / ___| ____|  \/  | ____| \ | |_   _|
   / _ \ | |_) | |     | |  \  /   _____    / _ \ | |_) | |  | |\/| | / _ \ |  \| | / _ \| |  _|  _| | |\/| |  _| |  \| | | |
  / ___ \|  _ <| |___  | |  /  \  |_____|  / ___ \|  __/| |  | |  | |/ ___ \| |\  |/ ___ \ |_| | |___| |  | | |___| |\  | | |
 /_/   \_\_| \_\\____| |_| /_/\_\         /_/   \_\_|  |___| |_|  |_/_/   \_\_| \_/_/   \_\____|_____|_|  |_|_____|_| \_| |_|
===============================================================================================================================